{
  "project_info": {
    "project_number": "810795162128",
    "project_id": "maxxshop-34b39",
    "storage_bucket": "maxxshop-34b39.appspot.com"
  },
  "client": [
    {
      "client_info": {
        "mobilesdk_app_id": "1:810795162128:android:6799667fa071ea8a654895",
        "android_client_info": {
          "package_name": "com.example.maxxshop"
        }
      },
      "oauth_client": [
        {
          "client_id": "810795162128-fnp981hpq24p8dodg0i3kb7cjn0c8qrq.apps.googleusercontent.com",
          "client_type": 3
        }
      ],
      "api_key": [
        {
          "current_key": "AIzaSyBbDkc8q6qHKaKtl6yl7xyCBzbYrnNoxaU"
        }
      ],
      "services": {
        "appinvite_service": {
          "other_platform_oauth_client": [
            {
              "client_id": "810795162128-fnp981hpq24p8dodg0i3kb7cjn0c8qrq.apps.googleusercontent.com",
              "client_type": 3
            }
          ]
        }
      }
    },
    {
      "client_info": {
        "mobilesdk_app_id": "1:810795162128:android:8e688a527882bd25654895",
        "android_client_info": {
          "package_name": "com.maxx247.maxxshop"
        }
      },
      "oauth_client": [
        {
          "client_id": "810795162128-fnp981hpq24p8dodg0i3kb7cjn0c8qrq.apps.googleusercontent.com",
          "client_type": 3
        }
      ],
      "api_key": [
        {
          "current_key": "AIzaSyBbDkc8q6qHKaKtl6yl7xyCBzbYrnNoxaU"
        }
      ],
      "services": {
        "appinvite_service": {
          "other_platform_oauth_client": [
            {
              "client_id": "810795162128-fnp981hpq24p8dodg0i3kb7cjn0c8qrq.apps.googleusercontent.com",
              "client_type": 3
            }
          ]
        }
      }
    }
  ],
  "configuration_version": "1"
}